ISO-10303-21;
HEADER;
FILE_DESCRIPTION (( 'STEP AP214' ),
    '1' );
FILE_NAME ('PTS0805M.STEP',
    '2018-05-31T11:55:55',
    ( '' ),
    ( '' ),
    'SwSTEP 2.0',
    'SolidWorks 2018',
    '' );
FILE_SCHEMA (( 'AUTOMOTIVE_DESIGN' ));
ENDSEC;

DATA;
#1 = VECTOR ( 'NONE', #204, 1000.000000000000000 ) ;
#2 =( LENGTH_UNIT ( ) NAMED_UNIT ( * ) SI_UNIT ( .MILLI., .METRE. ) );
#3 = EDGE_LOOP ( 'NONE', ( #46, #149, #217, #17 ) ) ;
#4 = EDGE_CURVE ( 'NONE', #295, #345, #123, .T. ) ;
#5 = CARTESIAN_POINT ( 'NONE',  ( -0.4499999999999997891, 0.0000000000000000000, -0.6999999999999999556 ) ) ;
#6 = CARTESIAN_POINT ( 'NONE',  ( 0.0000000000000000000, 0.0000000000000000000, 0.0000000000000000000 ) ) ;
#7 =( GEOMETRIC_REPRESENTATION_CONTEXT ( 3 ) GLOBAL_UNCERTAINTY_ASSIGNED_CONTEXT ( ( #213 ) ) GLOBAL_UNIT_ASSIGNED_CONTEXT ( ( #208, #16, #86 ) ) REPRESENTATION_CONTEXT ( 'NONE', 'WORKASPACE' ) );
#8 = PLANE ( 'NONE',  #364 ) ;
#9 = VERTEX_POINT ( 'NONE', #155 ) ;
#10 = CARTESIAN_POINT ( 'NONE',  ( -0.4499999999999997891, 0.0000000000000000000, 0.6999999999999999556 ) ) ;
#11 = EDGE_CURVE ( 'NONE', #376, #218, #133, .T. ) ;
#12 = DIRECTION ( 'NONE',  ( 1.000000000000000000, 0.0000000000000000000, 0.0000000000000000000 ) ) ;
#13 = SURFACE_SIDE_STYLE ('',( #256 ) ) ;
#14 = DIRECTION ( 'NONE',  ( 1.000000000000000000, 0.0000000000000000000, -0.0000000000000000000 ) ) ;
#15 = VECTOR ( 'NONE', #188, 1000.000000000000000 ) ;
#16 =( NAMED_UNIT ( * ) PLANE_ANGLE_UNIT ( ) SI_UNIT ( $, .RADIAN. ) );
#17 = ORIENTED_EDGE ( 'NONE', *, *, #176, .F. ) ;
#18 = VECTOR ( 'NONE', #294, 1000.000000000000000 ) ;
#19 = COLOUR_RGB ( '',0.6470588235294117974, 0.6196078431372549211, 0.5882352941176470784 ) ;
#20 = LINE ( 'NONE', #381, #180 ) ;
#21 = LINE ( 'NONE', #353, #18 ) ;
#22 = EDGE_CURVE ( 'NONE', #218, #243, #348, .T. ) ;
#23 = ORIENTED_EDGE ( 'NONE', *, *, #405, .T. ) ;
#24 =( NAMED_UNIT ( * ) PLANE_ANGLE_UNIT ( ) SI_UNIT ( $, .RADIAN. ) );
#25 = FILL_AREA_STYLE ('',( #118 ) ) ;
#26 = CARTESIAN_POINT ( 'NONE',  ( 0.4500000000000002887, 0.0000000000000000000, 0.7000000000000000666 ) ) ;
#27 = DIRECTION ( 'NONE',  ( 1.734723475976807094E-16, 0.0000000000000000000, 1.000000000000000000 ) ) ;
#28 = EDGE_CURVE ( 'NONE', #140, #287, #236, .T. ) ;
#29 = DIRECTION ( 'NONE',  ( 0.0000000000000000000, 1.000000000000000000, 0.0000000000000000000 ) ) ;
#30 = CARTESIAN_POINT ( 'NONE',  ( -1.000000000000000222, 2.908495283014151056, -0.6250000000000001110 ) ) ;
#31 = SURFACE_SIDE_STYLE ('',( #100 ) ) ;
#32 = FILL_AREA_STYLE ('',( #92 ) ) ;
#33 = ORIENTED_EDGE ( 'NONE', *, *, #374, .F. ) ;
#34 = DIRECTION ( 'NONE',  ( -1.000000000000000000, -0.0000000000000000000, -0.0000000000000000000 ) ) ;
#35 = SURFACE_STYLE_USAGE ( .BOTH. , #67 ) ;
#36 = APPLICATION_CONTEXT ( 'automotive_design' ) ;
#37 = VECTOR ( 'NONE', #116, 1000.000000000000000 ) ;
#38 = CARTESIAN_POINT ( 'NONE',  ( 0.9999999999999997780, 0.5500000000000001554, -0.6250000000000001110 ) ) ;
#39 = CARTESIAN_POINT ( 'NONE',  ( 0.9999999999999997780, 2.908495283014151056, -0.6250000000000001110 ) ) ;
#40 = APPLICATION_CONTEXT ( 'automotive_design' ) ;
#41 = CARTESIAN_POINT ( 'NONE',  ( 0.5999999999999998668, 0.0000000000000000000, -0.6250000000000001110 ) ) ;
#42 = PLANE ( 'NONE',  #109 ) ;
#43 = AXIS2_PLACEMENT_3D ( 'NONE', #298, #97, #269 ) ;
#44 = ORIENTED_EDGE ( 'NONE', *, *, #127, .F. ) ;
#45 = EDGE_CURVE ( 'NONE', #287, #218, #274, .T. ) ;
#46 = ORIENTED_EDGE ( 'NONE', *, *, #80, .F. ) ;
#47 = VECTOR ( 'NONE', #104, 1000.000000000000000 ) ;
#48 = EDGE_CURVE ( 'NONE', #212, #343, #392, .T. ) ;
#49 = COLOUR_RGB ( '',0.6470588235294117974, 0.6196078431372549211, 0.5882352941176470784 ) ;
#50 = EDGE_LOOP ( 'NONE', ( #277, #150, #33, #98 ) ) ;
#51 = ORIENTED_EDGE ( 'NONE', *, *, #341, .F. ) ;
#52 = CARTESIAN_POINT ( 'NONE',  ( 0.9999999999999997780, 2.908495283014151056, -0.6250000000000001110 ) ) ;
#53 = EDGE_LOOP ( 'NONE', ( #142, #144, #308, #340, #128, #125 ) ) ;
#54 = SURFACE_STYLE_USAGE ( .BOTH. , #289 ) ;
#55 = UNCERTAINTY_MEASURE_WITH_UNIT (LENGTH_MEASURE( 1.000000000000000082E-05 ), #2, 'distance_accuracy_value', 'NONE');
#56 = DIRECTION ( 'NONE',  ( -1.000000000000000000, 0.0000000000000000000, 0.0000000000000000000 ) ) ;
#57 = CARTESIAN_POINT ( 'NONE',  ( -1.000000000000000222, 0.0000000000000000000, -0.6250000000000001110 ) ) ;
#58 = PRESENTATION_STYLE_ASSIGNMENT (( #35 ) ) ;
#59 = DIRECTION ( 'NONE',  ( 1.734723475976807094E-16, 0.0000000000000000000, 1.000000000000000000 ) ) ;
#60 = STYLED_ITEM ( 'NONE', ( #352 ), #266 ) ;
#61 = ORIENTED_EDGE ( 'NONE', *, *, #4, .F. ) ;
#62 = ADVANCED_FACE ( 'NONE', ( #184 ), #159, .F. ) ;
#63 = VERTEX_POINT ( 'NONE', #41 ) ;
#64 = EDGE_CURVE ( 'NONE', #163, #63, #85, .T. ) ;
#65 = FILL_AREA_STYLE_COLOUR ( '', #148 ) ;
#66 = AXIS2_PLACEMENT_3D ( 'NONE', #6, #333, #169 ) ;
#67 = SURFACE_SIDE_STYLE ('',( #406 ) ) ;
#68 = SURFACE_STYLE_FILL_AREA ( #83 ) ;
#69 = PLANE ( 'NONE',  #336 ) ;
#70 = VECTOR ( 'NONE', #56, 1000.000000000000000 ) ;
#71 = DIRECTION ( 'NONE',  ( -1.000000000000000000, -0.0000000000000000000, -0.0000000000000000000 ) ) ;
#72 = CARTESIAN_POINT ( 'NONE',  ( 0.0000000000000000000, 0.5500000000000000444, 0.0000000000000000000 ) ) ;
#73 = LINE ( 'NONE', #26, #238 ) ;
#74 = CARTESIAN_POINT ( 'NONE',  ( -1.000000000000000222, 2.908495283014151056, -0.6250000000000001110 ) ) ;
#75 = CARTESIAN_POINT ( 'NONE',  ( -1.000000000000000000, 0.0000000000000000000, 0.6249999999999998890 ) ) ;
#76 = VECTOR ( 'NONE', #365, 1000.000000000000000 ) ;
#77 = FACE_OUTER_BOUND ( 'NONE', #316, .T. ) ;
#78 = AXIS2_PLACEMENT_3D ( 'NONE', #361, #124, #264 ) ;
#79 = OPEN_SHELL ( 'NONE', ( #266 ) ) ;
#80 = EDGE_CURVE ( 'NONE', #385, #63, #304, .T. ) ;
#81 = FILL_AREA_STYLE_COLOUR ( '', #235 ) ;
#82 =( GEOMETRIC_REPRESENTATION_CONTEXT ( 3 ) GLOBAL_UNCERTAINTY_ASSIGNED_CONTEXT ( ( #131 ) ) GLOBAL_UNIT_ASSIGNED_CONTEXT ( ( #170, #371, #334 ) ) REPRESENTATION_CONTEXT ( 'NONE', 'WORKASPACE' ) );
#83 = FILL_AREA_STYLE ('',( #81 ) ) ;
#84 = ORIENTED_EDGE ( 'NONE', *, *, #64, .F. ) ;
#85 = LINE ( 'NONE', #224, #214 ) ;
#86 =( NAMED_UNIT ( * ) SI_UNIT ( $, .STERADIAN. ) SOLID_ANGLE_UNIT ( ) );
#87 = DIRECTION ( 'NONE',  ( 1.734723475976807094E-16, -0.0000000000000000000, 1.000000000000000000 ) ) ;
#88 = STYLED_ITEM ( 'NONE', ( #203 ), #259 ) ;
#89 = PRODUCT_DEFINITION_CONTEXT ( 'detailed design', #36, 'design' ) ;
#90 =( NAMED_UNIT ( * ) SI_UNIT ( $, .STERADIAN. ) SOLID_ANGLE_UNIT ( ) );
#91 = PRESENTATION_STYLE_ASSIGNMENT (( #195 ) ) ;
#92 = FILL_AREA_STYLE_COLOUR ( '', #19 ) ;
#93 = ORIENTED_EDGE ( 'NONE', *, *, #107, .T. ) ;
#94 = DIRECTION ( 'NONE',  ( -1.734723475976807094E-16, -0.0000000000000000000, -1.000000000000000000 ) ) ;
#95 = SURFACE_STYLE_FILL_AREA ( #25 ) ;
#96 = ADVANCED_FACE ( 'NONE', ( #355 ), #395, .F. ) ;
#97 = DIRECTION ( 'NONE',  ( 0.0000000000000000000, 1.000000000000000000, 0.0000000000000000000 ) ) ;
#98 = ORIENTED_EDGE ( 'NONE', *, *, #22, .F. ) ;
#99 = DIRECTION ( 'NONE',  ( 1.000000000000000000, 0.0000000000000000000, 0.0000000000000000000 ) ) ;
#100 = SURFACE_STYLE_FILL_AREA ( #32 ) ;
#101 = CARTESIAN_POINT ( 'NONE',  ( 1.350000000000000311, 0.0000000000000000000, -0.6999999999999998446 ) ) ;
#102 = CARTESIAN_POINT ( 'NONE',  ( -0.4499999999999997891, 0.0000000000000000000, -0.6999999999999999556 ) ) ;
#103 = LINE ( 'NONE', #52, #189 ) ;
#104 = DIRECTION ( 'NONE',  ( 1.000000000000000000, 0.0000000000000000000, 0.0000000000000000000 ) ) ;
#105 = PRESENTATION_LAYER_ASSIGNMENT (  '', '', ( #60 ) ) ;
#106 = ORIENTED_EDGE ( 'NONE', *, *, #28, .T. ) ;
#107 = EDGE_CURVE ( 'NONE', #295, #243, #117, .T. ) ;
#108 = EDGE_LOOP ( 'NONE', ( #61, #93, #379, #23, #190, #245 ) ) ;
#109 = AXIS2_PLACEMENT_3D ( 'NONE', #72, #399, #172 ) ;
#110 = AXIS2_PLACEMENT_3D ( 'NONE', #74, #239, #14 ) ;
#111 = ORIENTED_EDGE ( 'NONE', *, *, #297, .T. ) ;
#112 = EDGE_LOOP ( 'NONE', ( #359, #372, #84, #251 ) ) ;
#113 = ADVANCED_FACE ( 'NONE', ( #211 ), #255, .F. ) ;
#114 = ORIENTED_EDGE ( 'NONE', *, *, #279, .T. ) ;
#115 = DIRECTION ( 'NONE',  ( -0.0000000000000000000, -1.000000000000000000, -0.0000000000000000000 ) ) ;
#116 = DIRECTION ( 'NONE',  ( 0.0000000000000000000, 0.0000000000000000000, -1.000000000000000000 ) ) ;
#117 = LINE ( 'NONE', #318, #284 ) ;
#118 = FILL_AREA_STYLE_COLOUR ( '', #346 ) ;
#119 = CARTESIAN_POINT ( 'NONE',  ( -1.000000000000000000, 0.5500000000000001554, 0.6249999999999998890 ) ) ;
#120 =( LENGTH_UNIT ( ) NAMED_UNIT ( * ) SI_UNIT ( .MILLI., .METRE. ) );
#121 = ORIENTED_EDGE ( 'NONE', *, *, #297, .F. ) ;
#122 = MECHANICAL_DESIGN_GEOMETRIC_PRESENTATION_REPRESENTATION (  '', ( #60 ), #147 ) ;
#123 = LINE ( 'NONE', #260, #215 ) ;
#124 = DIRECTION ( 'NONE',  ( 0.0000000000000000000, 1.000000000000000000, 0.0000000000000000000 ) ) ;
#125 = ORIENTED_EDGE ( 'NONE', *, *, #45, .F. ) ;
#126 =( NAMED_UNIT ( * ) SI_UNIT ( $, .STERADIAN. ) SOLID_ANGLE_UNIT ( ) );
#127 = EDGE_CURVE ( 'NONE', #140, #163, #103, .T. ) ;
#128 = ORIENTED_EDGE ( 'NONE', *, *, #11, .T. ) ;
#129 = CARTESIAN_POINT ( 'NONE',  ( -1.349999999999999645, 0.0000000000000000000, -0.6999999999999999556 ) ) ;
#130 =( NAMED_UNIT ( * ) PLANE_ANGLE_UNIT ( ) SI_UNIT ( $, .RADIAN. ) );
#131 = UNCERTAINTY_MEASURE_WITH_UNIT (LENGTH_MEASURE( 1.000000000000000082E-05 ), #170, 'distance_accuracy_value', 'NONE');
#132 =( NAMED_UNIT ( * ) SI_UNIT ( $, .STERADIAN. ) SOLID_ANGLE_UNIT ( ) );
#133 = LINE ( 'NONE', #262, #145 ) ;
#134 = PRESENTATION_LAYER_ASSIGNMENT (  '', '', ( #88 ) ) ;
#135 = CARTESIAN_POINT ( 'NONE',  ( 0.9999999999999997780, 0.0000000000000000000, -0.6250000000000001110 ) ) ;
#136 = CARTESIAN_POINT ( 'NONE',  ( 0.5999999999999998668, 0.0000000000000000000, 0.6249999999999998890 ) ) ;
#137 = FACE_OUTER_BOUND ( 'NONE', #328, .T. ) ;
#138 = CARTESIAN_POINT ( 'NONE',  ( -1.000000000000000222, 0.0000000000000000000, -0.6250000000000001110 ) ) ;
#139 = DIRECTION ( 'NONE',  ( -1.000000000000000000, -0.0000000000000000000, -2.409338161078898687E-16 ) ) ;
#140 = VERTEX_POINT ( 'NONE', #319 ) ;
#141 = ORIENTED_EDGE ( 'NONE', *, *, #4, .T. ) ;
#142 = ORIENTED_EDGE ( 'NONE', *, *, #28, .F. ) ;
#143 = COLOUR_RGB ( '',0.7960784313725489669, 0.8235294117647058432, 0.9372549019607843146 ) ;
#144 = ORIENTED_EDGE ( 'NONE', *, *, #127, .T. ) ;
#145 = VECTOR ( 'NONE', #186, 1000.000000000000000 ) ;
#146 = LINE ( 'NONE', #38, #223 ) ;
#147 =( GEOMETRIC_REPRESENTATION_CONTEXT ( 3 ) GLOBAL_UNCERTAINTY_ASSIGNED_CONTEXT ( ( #55 ) ) GLOBAL_UNIT_ASSIGNED_CONTEXT ( ( #2, #225, #90 ) ) REPRESENTATION_CONTEXT ( 'NONE', 'WORKASPACE' ) );
#148 = COLOUR_RGB ( '',0.6666666666666666297, 0.6666666666666666297, 0.6666666666666666297 ) ;
#149 = ORIENTED_EDGE ( 'NONE', *, *, #405, .F. ) ;
#150 = ORIENTED_EDGE ( 'NONE', *, *, #151, .T. ) ;
#151 = EDGE_CURVE ( 'NONE', #376, #285, #20, .T. ) ;
#152 = DIRECTION ( 'NONE',  ( 0.0000000000000000000, 0.0000000000000000000, -1.000000000000000000 ) ) ;
#153 = STYLED_ITEM ( 'NONE', ( #165 ), #332 ) ;
#154 = DIRECTION ( 'NONE',  ( -0.0000000000000000000, -1.000000000000000000, -0.0000000000000000000 ) ) ;
#155 = CARTESIAN_POINT ( 'NONE',  ( 1.000000000000000000, 0.0000000000000000000, 0.6249999999999998890 ) ) ;
#156 = LINE ( 'NONE', #157, #323 ) ;
#157 = CARTESIAN_POINT ( 'NONE',  ( 0.4500000000000002887, 0.0000000000000000000, -0.7000000000000000666 ) ) ;
#158 = MECHANICAL_DESIGN_GEOMETRIC_PRESENTATION_REPRESENTATION (  '', ( #88 ), #179 ) ;
#159 = PLANE ( 'NONE',  #110 ) ;
#160 = LINE ( 'NONE', #129, #242 ) ;
#161 = EDGE_CURVE ( 'NONE', #309, #212, #356, .T. ) ;
#162 = ORIENTED_EDGE ( 'NONE', *, *, #341, .T. ) ;
#163 = VERTEX_POINT ( 'NONE', #135 ) ;
#164 =( LENGTH_UNIT ( ) NAMED_UNIT ( * ) SI_UNIT ( .MILLI., .METRE. ) );
#165 = PRESENTATION_STYLE_ASSIGNMENT (( #205 ) ) ;
#166 = UNCERTAINTY_MEASURE_WITH_UNIT (LENGTH_MEASURE( 1.000000000000000082E-05 ), #164, 'distance_accuracy_value', 'NONE');
#167 = APPLICATION_PROTOCOL_DEFINITION ( 'draft international standard', 'automotive_design', 1998, #36 ) ;
#168 = CARTESIAN_POINT ( 'NONE',  ( 0.0000000000000000000, 0.0000000000000000000, 0.0000000000000000000 ) ) ;
#169 = DIRECTION ( 'NONE',  ( 0.0000000000000000000, -0.0000000000000000000, 1.000000000000000000 ) ) ;
#170 =( LENGTH_UNIT ( ) NAMED_UNIT ( * ) SI_UNIT ( .MILLI., .METRE. ) );
#171 = DIRECTION ( 'NONE',  ( 0.0000000000000000000, -0.0000000000000000000, 1.000000000000000000 ) ) ;
#172 = DIRECTION ( 'NONE',  ( 0.0000000000000000000, -0.0000000000000000000, 1.000000000000000000 ) ) ;
#173 = VECTOR ( 'NONE', #71, 1000.000000000000000 ) ;
#174 = ORIENTED_EDGE ( 'NONE', *, *, #363, .T. ) ;
#175 = PRESENTATION_STYLE_ASSIGNMENT (( #241 ) ) ;
#176 = EDGE_CURVE ( 'NONE', #63, #376, #263, .T. ) ;
#177 = VERTEX_POINT ( 'NONE', #306 ) ;
#178 = PRESENTATION_LAYER_ASSIGNMENT (  '', '', ( #153 ) ) ;
#179 =( GEOMETRIC_REPRESENTATION_CONTEXT ( 3 ) GLOBAL_UNCERTAINTY_ASSIGNED_CONTEXT ( ( #281 ) ) GLOBAL_UNIT_ASSIGNED_CONTEXT ( ( #257, #24, #219 ) ) REPRESENTATION_CONTEXT ( 'NONE', 'WORKASPACE' ) );
#180 = VECTOR ( 'NONE', #171, 1000.000000000000000 ) ;
#181 = ORIENTED_EDGE ( 'NONE', *, *, #22, .T. ) ;
#182 = EDGE_CURVE ( 'NONE', #343, #252, #344, .T. ) ;
#183 = LINE ( 'NONE', #101, #360 ) ;
#184 = FACE_OUTER_BOUND ( 'NONE', #53, .T. ) ;
#185 = DIRECTION ( 'NONE',  ( 1.000000000000000000, 0.0000000000000000000, -1.734723475976807094E-16 ) ) ;
#186 = DIRECTION ( 'NONE',  ( -1.000000000000000000, -0.0000000000000000000, -0.0000000000000000000 ) ) ;
#187 = FACE_OUTER_BOUND ( 'NONE', #3, .T. ) ;
#188 = DIRECTION ( 'NONE',  ( 0.0000000000000000000, 0.0000000000000000000, 1.000000000000000000 ) ) ;
#189 = VECTOR ( 'NONE', #154, 1000.000000000000000 ) ;
#190 = ORIENTED_EDGE ( 'NONE', *, *, #199, .T. ) ;
#191 = SURFACE_STYLE_USAGE ( .BOTH. , #31 ) ;
#192 = STYLED_ITEM ( 'NONE', ( #58 ), #362 ) ;
#193 = CARTESIAN_POINT ( 'NONE',  ( 1.350000000000000311, 0.0000000000000000000, -0.6999999999999998446 ) ) ;
#194 = ADVANCED_FACE ( 'NONE', ( #77 ), #69, .F. ) ;
#195 = SURFACE_STYLE_USAGE ( .BOTH. , #327 ) ;
#196 = UNCERTAINTY_MEASURE_WITH_UNIT (LENGTH_MEASURE( 1.000000000000000082E-05 ), #394, 'distance_accuracy_value', 'NONE');
#197 = DIRECTION ( 'NONE',  ( 0.0000000000000000000, 0.0000000000000000000, 1.000000000000000000 ) ) ;
#198 = ORIENTED_EDGE ( 'NONE', *, *, #250, .T. ) ;
#199 = EDGE_CURVE ( 'NONE', #385, #9, #276, .T. ) ;
#200 = FILL_AREA_STYLE_COLOUR ( '', #49 ) ;
#201 = MECHANICAL_DESIGN_GEOMETRIC_PRESENTATION_REPRESENTATION (  '', ( #153 ), #220 ) ;
#202 =( NAMED_UNIT ( * ) SI_UNIT ( $, .STERADIAN. ) SOLID_ANGLE_UNIT ( ) );
#203 = PRESENTATION_STYLE_ASSIGNMENT (( #54 ) ) ;
#204 = DIRECTION ( 'NONE',  ( -0.0000000000000000000, -0.0000000000000000000, -1.000000000000000000 ) ) ;
#205 = SURFACE_STYLE_USAGE ( .BOTH. , #13 ) ;
#206 = CARTESIAN_POINT ( 'NONE',  ( 0.5999999999999998668, 0.0000000000000000000, 0.0000000000000000000 ) ) ;
#207 = CARTESIAN_POINT ( 'NONE',  ( 0.0000000000000000000, 0.0000000000000000000, 0.0000000000000000000 ) ) ;
#208 =( LENGTH_UNIT ( ) NAMED_UNIT ( * ) SI_UNIT ( .MILLI., .METRE. ) );
#209 = EDGE_CURVE ( 'NONE', #345, #9, #249, .T. ) ;
#210 = ORIENTED_EDGE ( 'NONE', *, *, #209, .T. ) ;
#211 = FACE_OUTER_BOUND ( 'NONE', #349, .T. ) ;
#212 = VERTEX_POINT ( 'NONE', #329 ) ;
#213 = UNCERTAINTY_MEASURE_WITH_UNIT (LENGTH_MEASURE( 1.000000000000000082E-05 ), #208, 'distance_accuracy_value', 'NONE');
#214 = VECTOR ( 'NONE', #393, 1000.000000000000000 ) ;
#215 = VECTOR ( 'NONE', #350, 1000.000000000000000 ) ;
#216 = AXIS2_PLACEMENT_3D ( 'NONE', #303, #409, #330 ) ;
#217 = ORIENTED_EDGE ( 'NONE', *, *, #151, .F. ) ;
#218 = VERTEX_POINT ( 'NONE', #370 ) ;
#219 =( NAMED_UNIT ( * ) SI_UNIT ( $, .STERADIAN. ) SOLID_ANGLE_UNIT ( ) );
#220 =( GEOMETRIC_REPRESENTATION_CONTEXT ( 3 ) GLOBAL_UNCERTAINTY_ASSIGNED_CONTEXT ( ( #196 ) ) GLOBAL_UNIT_ASSIGNED_CONTEXT ( ( #394, #369, #132 ) ) REPRESENTATION_CONTEXT ( 'NONE', 'WORKASPACE' ) );
#221 = PLANE ( 'NONE',  #66 ) ;
#222 = CARTESIAN_POINT ( 'NONE',  ( -1.000000000000000000, 0.0000000000000000000, 0.6249999999999998890 ) ) ;
#223 = VECTOR ( 'NONE', #234, 1000.000000000000000 ) ;
#224 = CARTESIAN_POINT ( 'NONE',  ( -1.000000000000000222, 0.0000000000000000000, -0.6250000000000001110 ) ) ;
#225 =( NAMED_UNIT ( * ) PLANE_ANGLE_UNIT ( ) SI_UNIT ( $, .RADIAN. ) );
#226 = EDGE_CURVE ( 'NONE', #252, #309, #160, .T. ) ;
#227 = ADVANCED_FACE ( 'NONE', ( #407 ), #301, .F. ) ;
#228 = ORIENTED_EDGE ( 'NONE', *, *, #161, .T. ) ;
#229 = CARTESIAN_POINT ( 'NONE',  ( 0.9999999999999997780, 0.0000000000000000000, -0.6250000000000001110 ) ) ;
#230 = EDGE_LOOP ( 'NONE', ( #228, #408, #302, #258 ) ) ;
#231 = FILL_AREA_STYLE ('',( #65 ) ) ;
#232 = LINE ( 'NONE', #75, #388 ) ;
#233 = FILL_AREA_STYLE ('',( #200 ) ) ;
#234 = DIRECTION ( 'NONE',  ( -1.734723475976807094E-16, 0.0000000000000000000, -1.000000000000000000 ) ) ;
#235 = COLOUR_RGB ( '',0.7960784313725489669, 0.8235294117647058432, 0.9372549019607843146 ) ;
#236 = LINE ( 'NONE', #322, #70 ) ;
#237 = FILL_AREA_STYLE ('',( #275 ) ) ;
#238 = VECTOR ( 'NONE', #99, 1000.000000000000000 ) ;
#239 = DIRECTION ( 'NONE',  ( 0.0000000000000000000, 0.0000000000000000000, 1.000000000000000000 ) ) ;
#240 = DIRECTION ( 'NONE',  ( 1.000000000000000000, 0.0000000000000000000, 0.0000000000000000000 ) ) ;
#241 = SURFACE_STYLE_USAGE ( .BOTH. , #398 ) ;
#242 = VECTOR ( 'NONE', #34, 1000.000000000000000 ) ;
#243 = VERTEX_POINT ( 'NONE', #270 ) ;
#244 = VECTOR ( 'NONE', #27, 1000.000000000000000 ) ;
#245 = ORIENTED_EDGE ( 'NONE', *, *, #209, .F. ) ;
#246 = VERTEX_POINT ( 'NONE', #193 ) ;
#247 = OPEN_SHELL ( 'NONE', ( #362 ) ) ;
#248 = AXIS2_PLACEMENT_3D ( 'NONE', #380, #152, #347 ) ;
#249 = LINE ( 'NONE', #390, #76 ) ;
#250 = EDGE_CURVE ( 'NONE', #9, #163, #375, .T. ) ;
#251 = ORIENTED_EDGE ( 'NONE', *, *, #250, .F. ) ;
#252 = VERTEX_POINT ( 'NONE', #5 ) ;
#253 = PRESENTATION_LAYER_ASSIGNMENT (  '', '', ( #192 ) ) ;
#254 = ADVANCED_FACE ( 'NONE', ( #187 ), #325, .F. ) ;
#255 = PLANE ( 'NONE',  #293 ) ;
#256 = SURFACE_STYLE_FILL_AREA ( #237 ) ;
#257 =( LENGTH_UNIT ( ) NAMED_UNIT ( * ) SI_UNIT ( .MILLI., .METRE. ) );
#258 = ORIENTED_EDGE ( 'NONE', *, *, #226, .T. ) ;
#259 = SHELL_BASED_SURFACE_MODEL ( 'NONE', ( #282, #79, #247 ) );
#260 = CARTESIAN_POINT ( 'NONE',  ( -1.000000000000000000, 0.5500000000000001554, 0.6249999999999998890 ) ) ;
#261 = DIRECTION ( 'NONE',  ( -1.000000000000000000, 0.0000000000000000000, 1.734723475976807094E-16 ) ) ;
#262 = CARTESIAN_POINT ( 'NONE',  ( -1.000000000000000222, 0.0000000000000000000, -0.6250000000000001110 ) ) ;
#263 = LINE ( 'NONE', #138, #173 ) ;
#264 = DIRECTION ( 'NONE',  ( 0.0000000000000000000, -0.0000000000000000000, 1.000000000000000000 ) ) ;
#265 = CARTESIAN_POINT ( 'NONE',  ( 1.350000000000000311, 0.0000000000000000000, 0.7000000000000000666 ) ) ;
#266 = ADVANCED_FACE ( 'NONE', ( #283 ), #296, .T. ) ;
#267 = ORIENTED_EDGE ( 'NONE', *, *, #401, .T. ) ;
#268 = LINE ( 'NONE', #338, #317 ) ;
#269 = DIRECTION ( 'NONE',  ( 0.0000000000000000000, -0.0000000000000000000, 1.000000000000000000 ) ) ;
#270 = CARTESIAN_POINT ( 'NONE',  ( -1.000000000000000000, 0.0000000000000000000, 0.6249999999999998890 ) ) ;
#271 = DIRECTION ( 'NONE',  ( 1.000000000000000000, 0.0000000000000000000, 0.0000000000000000000 ) ) ;
#272 = VERTEX_POINT ( 'NONE', #265 ) ;
#273 = CARTESIAN_POINT ( 'NONE',  ( -1.000000000000000222, 0.5500000000000001554, -0.6250000000000001110 ) ) ;
#274 = LINE ( 'NONE', #30, #326 ) ;
#275 = FILL_AREA_STYLE_COLOUR ( '', #143 ) ;
#276 = LINE ( 'NONE', #222, #339 ) ;
#277 = ORIENTED_EDGE ( 'NONE', *, *, #11, .F. ) ;
#278 = FACE_OUTER_BOUND ( 'NONE', #50, .T. ) ;
#279 = EDGE_CURVE ( 'NONE', #314, #272, #73, .T. ) ;
#280 = MECHANICAL_DESIGN_GEOMETRIC_PRESENTATION_REPRESENTATION (  '', ( #192 ), #300 ) ;
#281 = UNCERTAINTY_MEASURE_WITH_UNIT (LENGTH_MEASURE( 1.000000000000000082E-05 ), #257, 'distance_accuracy_value', 'NONE');
#282 = CLOSED_SHELL ( 'NONE', ( #254, #227, #113, #96, #194, #62, #377, #384 ) ) ;
#283 = FACE_OUTER_BOUND ( 'NONE', #230, .T. ) ;
#284 = VECTOR ( 'NONE', #115, 1000.000000000000000 ) ;
#285 = VERTEX_POINT ( 'NONE', #383 ) ;
#286 = CARTESIAN_POINT ( 'NONE',  ( -1.000000000000000222, 2.908495283014151056, -0.6250000000000001110 ) ) ;
#287 = VERTEX_POINT ( 'NONE', #382 ) ;
#288 = PRODUCT ( 'PTS0805M', 'PTS0805M', '', ( #391 ) ) ;
#289 = SURFACE_SIDE_STYLE ('',( #68 ) ) ;
#290 = AXIS2_PLACEMENT_3D ( 'NONE', #207, #197, #271 ) ;
#291 = CARTESIAN_POINT ( 'NONE',  ( -1.349999999999999645, 0.0000000000000000000, -0.6999999999999999556 ) ) ;
#292 = CARTESIAN_POINT ( 'NONE',  ( -1.349999999999999645, 0.0000000000000000000, -0.6999999999999999556 ) ) ;
#293 = AXIS2_PLACEMENT_3D ( 'NONE', #286, #185, #410 ) ;
#294 = DIRECTION ( 'NONE',  ( 1.000000000000000000, 0.0000000000000000000, 0.0000000000000000000 ) ) ;
#295 = VERTEX_POINT ( 'NONE', #119 ) ;
#296 = PLANE ( 'NONE',  #216 ) ;
#297 = EDGE_CURVE ( 'NONE', #287, #295, #396, .T. ) ;
#298 = CARTESIAN_POINT ( 'NONE',  ( 0.0000000000000000000, 0.0000000000000000000, 0.0000000000000000000 ) ) ;
#299 = EDGE_LOOP ( 'NONE', ( #106, #111, #141, #162 ) ) ;
#300 =( GEOMETRIC_REPRESENTATION_CONTEXT ( 3 ) GLOBAL_UNCERTAINTY_ASSIGNED_CONTEXT ( ( #404 ) ) GLOBAL_UNIT_ASSIGNED_CONTEXT ( ( #120, #130, #202 ) ) REPRESENTATION_CONTEXT ( 'NONE', 'WORKASPACE' ) );
#301 = PLANE ( 'NONE',  #43 ) ;
#302 = ORIENTED_EDGE ( 'NONE', *, *, #182, .T. ) ;
#303 = CARTESIAN_POINT ( 'NONE',  ( 0.0000000000000000000, 0.0000000000000000000, 0.0000000000000000000 ) ) ;
#304 = LINE ( 'NONE', #206, #37 ) ;
#305 = DIRECTION ( 'NONE',  ( -0.0000000000000000000, -0.0000000000000000000, -1.000000000000000000 ) ) ;
#306 = CARTESIAN_POINT ( 'NONE',  ( 0.4500000000000002887, 0.0000000000000000000, -0.7000000000000000666 ) ) ;
#307 = APPLICATION_PROTOCOL_DEFINITION ( 'draft international standard', 'automotive_design', 1998, #40 ) ;
#308 = ORIENTED_EDGE ( 'NONE', *, *, #64, .T. ) ;
#309 = VERTEX_POINT ( 'NONE', #291 ) ;
#310 = SHAPE_DEFINITION_REPRESENTATION ( #335, #332 ) ;
#311 = PRODUCT_DEFINITION ( 'UNKNOWN', '', #331, #89 ) ;
#312 = VECTOR ( 'NONE', #87, 1000.000000000000000 ) ;
#313 = STYLED_ITEM ( 'NONE', ( #91 ), #227 ) ;
#314 = VERTEX_POINT ( 'NONE', #321 ) ;
#315 = EDGE_CURVE ( 'NONE', #177, #314, #156, .T. ) ;
#316 = EDGE_LOOP ( 'NONE', ( #51, #210, #198, #44 ) ) ;
#317 = VECTOR ( 'NONE', #139, 1000.000000000000000 ) ;
#318 = CARTESIAN_POINT ( 'NONE',  ( -1.000000000000000000, 2.908495283014151056, 0.6249999999999998890 ) ) ;
#319 = CARTESIAN_POINT ( 'NONE',  ( 0.9999999999999997780, 0.5500000000000001554, -0.6250000000000001110 ) ) ;
#320 = DIRECTION ( 'NONE',  ( 0.0000000000000000000, -0.0000000000000000000, 1.000000000000000000 ) ) ;
#321 = CARTESIAN_POINT ( 'NONE',  ( 0.4500000000000002887, 0.0000000000000000000, 0.7000000000000000666 ) ) ;
#322 = CARTESIAN_POINT ( 'NONE',  ( -1.000000000000000222, 0.5500000000000001554, -0.6250000000000001110 ) ) ;
#323 = VECTOR ( 'NONE', #354, 1000.000000000000000 ) ;
#324 = SURFACE_STYLE_FILL_AREA ( #231 ) ;
#325 = PLANE ( 'NONE',  #78 ) ;
#326 = VECTOR ( 'NONE', #337, 1000.000000000000000 ) ;
#327 = SURFACE_SIDE_STYLE ('',( #324 ) ) ;
#328 = EDGE_LOOP ( 'NONE', ( #387, #114, #174, #267 ) ) ;
#329 = CARTESIAN_POINT ( 'NONE',  ( -1.349999999999999645, 0.0000000000000000000, 0.6999999999999999556 ) ) ;
#330 = DIRECTION ( 'NONE',  ( 0.0000000000000000000, -0.0000000000000000000, 1.000000000000000000 ) ) ;
#331 = PRODUCT_DEFINITION_FORMATION_WITH_SPECIFIED_SOURCE ( 'ANY', '', #288, .NOT_KNOWN. ) ;
#332 = MANIFOLD_SURFACE_SHAPE_REPRESENTATION ( 'PTS0805M', ( #259, #290 ), #82 ) ;
#333 = DIRECTION ( 'NONE',  ( 0.0000000000000000000, 1.000000000000000000, 0.0000000000000000000 ) ) ;
#334 =( NAMED_UNIT ( * ) SI_UNIT ( $, .STERADIAN. ) SOLID_ANGLE_UNIT ( ) );
#335 = PRODUCT_DEFINITION_SHAPE ( 'NONE', 'NONE',  #311 ) ;
#336 = AXIS2_PLACEMENT_3D ( 'NONE', #39, #261, #59 ) ;
#337 = DIRECTION ( 'NONE',  ( -0.0000000000000000000, -1.000000000000000000, -0.0000000000000000000 ) ) ;
#338 = CARTESIAN_POINT ( 'NONE',  ( 0.4500000000000002887, 0.0000000000000000000, -0.7000000000000000666 ) ) ;
#339 = VECTOR ( 'NONE', #12, 1000.000000000000000 ) ;
#340 = ORIENTED_EDGE ( 'NONE', *, *, #176, .T. ) ;
#341 = EDGE_CURVE ( 'NONE', #345, #140, #146, .T. ) ;
#342 = STYLED_ITEM ( 'NONE', ( #175 ), #377 ) ;
#343 = VERTEX_POINT ( 'NONE', #10 ) ;
#344 = LINE ( 'NONE', #102, #1 ) ;
#345 = VERTEX_POINT ( 'NONE', #358 ) ;
#346 = COLOUR_RGB ( '',0.6666666666666666297, 0.6666666666666666297, 0.6666666666666666297 ) ;
#347 = DIRECTION ( 'NONE',  ( -1.000000000000000000, 0.0000000000000000000, -0.0000000000000000000 ) ) ;
#348 = LINE ( 'NONE', #57, #244 ) ;
#349 = EDGE_LOOP ( 'NONE', ( #121, #400, #181, #389 ) ) ;
#350 = DIRECTION ( 'NONE',  ( 1.000000000000000000, -0.0000000000000000000, 0.0000000000000000000 ) ) ;
#351 = PRODUCT_RELATED_PRODUCT_CATEGORY ( 'part', '', ( #288 ) ) ;
#352 = PRESENTATION_STYLE_ASSIGNMENT (( #191 ) ) ;
#353 = CARTESIAN_POINT ( 'NONE',  ( -1.000000000000000000, 0.0000000000000000000, 0.6249999999999998890 ) ) ;
#354 = DIRECTION ( 'NONE',  ( 0.0000000000000000000, 0.0000000000000000000, 1.000000000000000000 ) ) ;
#355 = FACE_OUTER_BOUND ( 'NONE', #108, .T. ) ;
#356 = LINE ( 'NONE', #292, #15 ) ;
#357 = PRESENTATION_LAYER_ASSIGNMENT (  '', '', ( #313 ) ) ;
#358 = CARTESIAN_POINT ( 'NONE',  ( 1.000000000000000000, 0.5500000000000001554, 0.6249999999999998890 ) ) ;
#359 = ORIENTED_EDGE ( 'NONE', *, *, #199, .F. ) ;
#360 = VECTOR ( 'NONE', #305, 1000.000000000000000 ) ;
#361 = CARTESIAN_POINT ( 'NONE',  ( 0.0000000000000000000, 0.0000000000000000000, 0.0000000000000000000 ) ) ;
#362 = ADVANCED_FACE ( 'NONE', ( #137 ), #8, .T. ) ;
#363 = EDGE_CURVE ( 'NONE', #272, #246, #183, .T. ) ;
#364 = AXIS2_PLACEMENT_3D ( 'NONE', #168, #29, #320 ) ;
#365 = DIRECTION ( 'NONE',  ( -0.0000000000000000000, -1.000000000000000000, -0.0000000000000000000 ) ) ;
#366 = CARTESIAN_POINT ( 'NONE',  ( -0.6000000000000000888, 0.0000000000000000000, -0.6250000000000001110 ) ) ;
#367 = VECTOR ( 'NONE', #94, 1000.000000000000000 ) ;
#368 = CARTESIAN_POINT ( 'NONE',  ( -1.349999999999999645, 0.0000000000000000000, 0.6999999999999999556 ) ) ;
#369 =( NAMED_UNIT ( * ) PLANE_ANGLE_UNIT ( ) SI_UNIT ( $, .RADIAN. ) );
#370 = CARTESIAN_POINT ( 'NONE',  ( -1.000000000000000222, 0.0000000000000000000, -0.6250000000000001110 ) ) ;
#371 =( NAMED_UNIT ( * ) PLANE_ANGLE_UNIT ( ) SI_UNIT ( $, .RADIAN. ) );
#372 = ORIENTED_EDGE ( 'NONE', *, *, #80, .T. ) ;
#373 = MECHANICAL_DESIGN_GEOMETRIC_PRESENTATION_REPRESENTATION (  '', ( #313 ), #397 ) ;
#374 = EDGE_CURVE ( 'NONE', #243, #285, #21, .T. ) ;
#375 = LINE ( 'NONE', #229, #367 ) ;
#376 = VERTEX_POINT ( 'NONE', #366 ) ;
#377 = ADVANCED_FACE ( 'NONE', ( #278 ), #221, .F. ) ;
#378 = PRESENTATION_LAYER_ASSIGNMENT (  '', '', ( #342 ) ) ;
#379 = ORIENTED_EDGE ( 'NONE', *, *, #374, .T. ) ;
#380 = CARTESIAN_POINT ( 'NONE',  ( -1.000000000000000000, 2.908495283014151056, 0.6249999999999998890 ) ) ;
#381 = CARTESIAN_POINT ( 'NONE',  ( -0.6000000000000000888, 0.0000000000000000000, 0.0000000000000000000 ) ) ;
#382 = CARTESIAN_POINT ( 'NONE',  ( -1.000000000000000222, 0.5500000000000001554, -0.6250000000000001110 ) ) ;
#383 = CARTESIAN_POINT ( 'NONE',  ( -0.6000000000000000888, 0.0000000000000000000, 0.6249999999999998890 ) ) ;
#384 = ADVANCED_FACE ( 'NONE', ( #402 ), #42, .T. ) ;
#385 = VERTEX_POINT ( 'NONE', #136 ) ;
#386 =( NAMED_UNIT ( * ) PLANE_ANGLE_UNIT ( ) SI_UNIT ( $, .RADIAN. ) );
#387 = ORIENTED_EDGE ( 'NONE', *, *, #315, .T. ) ;
#388 = VECTOR ( 'NONE', #240, 1000.000000000000000 ) ;
#389 = ORIENTED_EDGE ( 'NONE', *, *, #107, .F. ) ;
#390 = CARTESIAN_POINT ( 'NONE',  ( 1.000000000000000000, 2.908495283014151056, 0.6249999999999998890 ) ) ;
#391 = PRODUCT_CONTEXT ( 'NONE', #40, 'mechanical' ) ;
#392 = LINE ( 'NONE', #368, #47 ) ;
#393 = DIRECTION ( 'NONE',  ( -1.000000000000000000, -0.0000000000000000000, -0.0000000000000000000 ) ) ;
#394 =( LENGTH_UNIT ( ) NAMED_UNIT ( * ) SI_UNIT ( .MILLI., .METRE. ) );
#395 = PLANE ( 'NONE',  #248 ) ;
#396 = LINE ( 'NONE', #273, #312 ) ;
#397 =( GEOMETRIC_REPRESENTATION_CONTEXT ( 3 ) GLOBAL_UNCERTAINTY_ASSIGNED_CONTEXT ( ( #166 ) ) GLOBAL_UNIT_ASSIGNED_CONTEXT ( ( #164, #386, #126 ) ) REPRESENTATION_CONTEXT ( 'NONE', 'WORKASPACE' ) );
#398 = SURFACE_SIDE_STYLE ('',( #95 ) ) ;
#399 = DIRECTION ( 'NONE',  ( 0.0000000000000000000, 1.000000000000000000, 0.0000000000000000000 ) ) ;
#400 = ORIENTED_EDGE ( 'NONE', *, *, #45, .T. ) ;
#401 = EDGE_CURVE ( 'NONE', #246, #177, #268, .T. ) ;
#402 = FACE_OUTER_BOUND ( 'NONE', #299, .T. ) ;
#403 = MECHANICAL_DESIGN_GEOMETRIC_PRESENTATION_REPRESENTATION (  '', ( #342 ), #7 ) ;
#404 = UNCERTAINTY_MEASURE_WITH_UNIT (LENGTH_MEASURE( 1.000000000000000082E-05 ), #120, 'distance_accuracy_value', 'NONE');
#405 = EDGE_CURVE ( 'NONE', #285, #385, #232, .T. ) ;
#406 = SURFACE_STYLE_FILL_AREA ( #233 ) ;
#407 = FACE_OUTER_BOUND ( 'NONE', #112, .T. ) ;
#408 = ORIENTED_EDGE ( 'NONE', *, *, #48, .T. ) ;
#409 = DIRECTION ( 'NONE',  ( 0.0000000000000000000, 1.000000000000000000, 0.0000000000000000000 ) ) ;
#410 = DIRECTION ( 'NONE',  ( -1.734723475976807094E-16, 0.0000000000000000000, -1.000000000000000000 ) ) ;
ENDSEC;
END-ISO-10303-21;
